// Stereo Viewport Material
// 5 Camera Stereo Viewport

vertex_program StereoViewport_vs cg
{
    source StereoViewport_vs.cg
    entry_point vs_main
    profiles vs_1_1 arbvp1

    default_params
    {
        param_named_auto worldViewProj worldviewproj_matrix
    }
}


fragment_program StereoViewport_fs asm
{
    source StereoViewport_fs.asm
    //entry_point fs_main
    //profiles ps_3_0 arbfp1
	syntax arbfp1
	
    default_params
    {
        // parameter for texture size
        //param_named texSize float2 1920 1080
        //param_named test float 0.0
    }

}

material StereoViewport/StereoViewport
{
    technique
    {
        pass
        {
			cull_hardware none
			cull_software none
			depth_check off
            vertex_program_ref StereoViewport_vs
            {
            }

            fragment_program_ref StereoViewport_fs
            {
            }

            texture_unit 0
            {
                texture StereoViewport/ViewRtt
                tex_coord_set 0
                tex_address_mode clamp
                filtering bilinear
            }
        }
    }
}