vertex_program DropletNode_Shader/QuadVertexProgram cg
{
	source Droplet.cg
	profiles vs_2_0 vp40
    entry_point quad_vs
	default_params
    {
        param_named_auto worldViewProj worldviewproj_matrix
    }
}


fragment_program DropletNode_Shader/DropletSimulation_ps cg
{
    source Droplet.cg
    entry_point quadSimulation_ps
    profiles ps_3_0 fp40

	default_params
	{
		//param_named exampleParam float3 0.0 1.0 2.0
	}
}

fragment_program DropletNode_Shader/DropletResult_ps cg
{
    source Droplet.cg
    entry_point quadResult_ps
    profiles ps_3_0 fp40

	default_params
	{
		//param_named exampleParam float3 0.0 1.0 2.0
	}
}


material DropletNode_Shader/DropletSimulation
{
	technique
	{
		pass
		{
			depth_check off

			fragment_program_ref DropletNode_Shader/DropletSimulation_ps
			{
			}
			
			vertex_program_ref DropletNode_Shader/QuadVertexProgram
			{
			}	
			
			 texture_unit	// (scene 0)
			 {
                 tex_coord_set 0
				 tex_address_mode border
				 tex_border_colour 0.0 0.0 0.0
				 filtering none
			 }
			 texture_unit 	// (randMap 1)
            {
				tex_coord_set 0
                texture random.png
				tex_address_mode wrap
                filtering none
            }
			texture_unit 	// (gravMap 1)
            {
				tex_coord_set 0
                texture Normal_Face.dds
				tex_address_mode border
				tex_border_colour 0.0 0.0 0.0
				filtering none
            }
		}
	}
}

material DropletNode_Shader/DropletResult
{
	technique
	{
		pass
		{
			depth_check off

			fragment_program_ref DropletNode_Shader/DropletResult_ps
			{
			}
			
			vertex_program_ref DropletNode_Shader/QuadVertexProgram
			{
			}	
			
			 texture_unit	// (scene)
			 {
                 tex_coord_set 0
				 tex_address_mode border
				 tex_border_colour 0.0 0.0 0.0
				 filtering none
			 }
		}
	}
}