vertex_program CompositorTemplate/QuadVP cg
{
	source CompositorTemplate.cg
	profiles vs_1_1 arbvp1
    entry_point quad_vs
	
	default_params
    {
        param_named_auto worldViewProj worldviewproj_matrix
    }
}

fragment_program CompositorTemplate/CompositorTemplateFP cg
{
    source CompositorTemplate.cg
    entry_point quad_ps
    profiles ps_3_0 fp40

	default_params
	{
		//param_named exampleParam float3 0.0 1.0 2.0
	}
}

material CompositorTemplate/CompositorTemplateMaterial
{
	technique
	{
		pass
		{
			depth_check off

			fragment_program_ref CompositorTemplate/CompositorTemplateFP
			{
			}
			
			vertex_program_ref CompositorTemplate/QuadVP
			{
			}	
			
			 texture_unit	// (scene)
			 {
                 tex_coord_set 0
				 tex_address_mode clamp
				 filtering none
			 }
			
			 texture_unit	// (normal)
			 {
                 tex_coord_set 0
				 tex_address_mode clamp
				 filtering none
				 // filtering linear linear linear
			 }

			 texture_unit	// (depth)
			 {
                 tex_coord_set 0
				 tex_address_mode clamp
				 filtering none
			 	 // filtering linear linear linear
			 }
		}
	}
}