Number_light: 16
Dir: 0.504448 0.817585 0.277645
Pow: 5797.194824 6915.361328 9250.048828

Dir: 0.786963 0.433094 0.439453
Pow: 10622.094727 12099.189453 12644.103516

Dir: 0.083010 0.824589 0.559609
Pow: 5861.196777 6889.889648 8632.856445

Dir: 0.149080 0.427555 0.891612
Pow: 11046.614258 12010.780273 12355.482422

Dir: 0.765494 0.219101 0.604991
Pow: 14215.500977 13466.483398 10832.601563

Dir: 0.767547 -0.183040 0.614303
Pow: 14223.136719 12410.330078 10659.463867

Dir: 0.119756 0.207111 0.970960
Pow: 14436.432617 13323.330078 10393.614258

Dir: 0.109029 -0.146731 0.983149
Pow: 16089.482422 12687.326172 9431.618164

Dir: -0.408104 0.803208 0.433946
Pow: 6180.194824 7266.697754 9048.665039

Dir: -0.562581 0.817585 -0.122711
Pow: 5915.463379 7034.805664 8924.444336

Dir: -0.814555 0.342661 0.468065
Pow: 11811.708984 12363.439453 12777.290039

Dir: -0.795461 -0.231058 0.560227
Pow: 13143.105469 11978.153320 10418.791992

Dir: -0.116346 0.863973 -0.489913
Pow: 5139.854004 6151.398926 7930.743652

Dir: 0.420916 0.854558 -0.304238
Pow: 5138.844727 6225.878418 8439.841797

Dir: -0.085565 0.073565 -0.993613
Pow: 11257.205078 11023.611328 11532.836914

Dir: 0.855226 0.231058 -0.463897
Pow: 10560.294922 11628.039063 13424.079102

