vertex_program DropletBlur/QuadVP cg
{
	source DropletBlur.cg
	profiles vs_2_0 vp40
    entry_point quad_vs
	default_params
    {
        param_named_auto worldViewProj worldviewproj_matrix
    }
}


fragment_program DropletBlur/DropletBlurFP cg
{
    source DropletBlur.cg
    entry_point quad_ps
    profiles ps_3_0 fp40

	default_params
	{
		//param_named exampleParam float3 0.0 1.0 2.0
	}
}


material DropletBlur/DropletBlurMaterial
{
	technique
	{
		pass
		{
			depth_check off

			fragment_program_ref DropletBlur/DropletBlurFP
			{
				param_named blend float 1.0
			}
			
			vertex_program_ref DropletBlur/QuadVP
			{
			}	
			
			 texture_unit	// (scene)
			 {
                 tex_coord_set 0
				 tex_address_mode clamp
				 filtering none
			 }
		}
	}
}