anim LeftUpperLidClose
{
	//Time   /    Value
	0.04	0
	0.08	0
	0.12	0
	0.16	0
	0.2	0
	0.24	0
	0.28	0
	0.32	0
	0.36	0
	0.4	0
	0.44	0
	0.48	0
	0.52	0.094083
	0.56	0.249067
	0.6	0.373859
	0.64	0.484804
	0.68	0.630213
	0.72	0.781861
	0.76	0.907155
	0.8	1.02044
	0.84	1.15245
	0.88	1.3287
	0.92	1.44137
	0.96	1.55799
	1	1.68899
	1.04	1.83475
	1.08	1.95244
	1.12	2.06296
	1.16	2.17273
	1.2	2.28059
	1.24	2.3863
	1.28	2.48967
	1.32	2.58838
	1.36	2.70754
	1.4	2.81995
	1.44	2.90323
	1.48	2.97434
	1.52	3.03173
	1.56	3.07705
	1.6	3.11058
	1.64	3.13276
	1.68	3.14501
	1.72	3.14882
	1.76	3.13561
	1.8	3.10038
	1.84	3.05117
	1.88	2.99897
	1.92	2.94181
	1.96	2.91425
	2	3.00847
	2.04	3.14267
	2.08	3.32768
	2.12	3.69876
	2.16	4.11389
	2.2	4.64608
	2.24	5.35759
	2.28	6.41142
	2.32	7.79899
	2.36	9.30331
	2.4	10.5739
	2.44	11.7427
	2.48	12.5826
	2.52	13.2211
	2.56	13.7742
	2.6	14.2508
	2.64	14.6474
	2.68	14.9656
	2.72	15.215
	2.76	15.4058
	2.8	15.5536
	2.84	15.6709
	2.88	15.757
	2.92	15.8094
	2.96	15.8282
	3	15.8187
	3.04	15.789
	3.08	15.7367
	3.12	15.661
	3.16	15.5624
	3.2	15.4348
	3.24	15.2616
	3.28	15.021
	3.32	14.6979
	3.36	14.2845
	3.4	13.7738
	3.44	13.1688
	3.48	12.4518
	3.52	11.437
	3.56	10.0777
	3.6	8.47955
	3.64	6.86902
	3.68	5.61885
	3.72	4.76833
	3.76	4.09385
	3.8	3.59409
	3.84	3.25685
	3.88	3.04406
	3.92	2.87297
	3.96	2.84472
	4	2.8441
	4.04	2.8441
	4.08	2.8441
	4.12	2.8441
	4.16	2.8441
	4.2	2.8441
	4.24	2.8441
	4.28	2.8441
	4.32	2.8441
	4.36	2.8441
	4.4	2.8441
	4.44	2.8441
	4.48	2.8441
	4.52	2.8441
	4.56	2.8441
	4.6	2.8441
	4.64	2.8441
	4.68	2.8441
	4.72	2.8441
	4.76	2.8441
	4.8	2.84202
	4.84	2.83372
	4.88	2.81944
	4.92	2.79943
	4.96	2.77335
	5	2.73981
	5.04	2.69545
	5.08	2.63825
	5.12	2.57531
	5.16	2.51684
	5.2	2.4597
	5.24	2.39643
	5.28	2.32818
	5.32	2.25553
	5.36	2.17868
	5.4	2.09782
	5.44	2.01314
	5.48	1.92541
	5.52	1.8769
	5.56	1.93393
	5.6	1.9724
	5.64	2.26701
	5.68	2.62965
	5.72	3.13939
	5.76	4.04607
	5.8	5.29766
	5.84	6.69332
	5.88	7.65248
	5.92	8.44746
	5.96	8.65786
	6	8.65786
	6.04	8.65786
	6.08	8.65786
	6.12	8.65786
	6.16	8.65786
	6.2	8.65786
	6.24	8.65786
	6.28	8.65786
	6.32	8.65786
	6.36	8.65786
	6.4	8.65786
	6.44	8.65786
	6.48	8.65786
	6.52	8.65786
	6.56	8.65786
	6.6	8.65786
	6.64	8.65786
	6.68	8.65786
	6.72	8.65786
	6.76	8.65786
	6.8	8.65786
	6.84	8.65786
	6.88	8.65786
	6.92	8.65786
	6.96	8.65786
	7	8.65786
	7.04	8.65786
	7.08	8.65786
	7.12	8.65786
	7.16	8.65786
	7.2	8.65786
	7.24	8.52029
	7.28	8.10903
	7.32	7.47199
	7.36	6.7048
	7.4	5.78519
	7.44	4.71385
	7.48	3.70512
	7.52	2.88265
	7.56	2.15467
	7.6	1.64521
	7.64	1.20824
	7.68	0.857756
	7.72	0.545203
	7.76	0.316701
	7.8	0.16699
	7.84	0.0630921
	7.88	0
	7.92	0
	7.96	0
	8	0
}
anim LeftLowerLidClose
{
	//Time   /    Value
	0.04	0
	0.08	0
	0.12	0
	0.16	0
	0.2	0
	0.24	0
	0.28	0
	0.32	0
	0.36	0
	0.4	0
	0.44	0
	0.48	0
	0.52	0.366775
	0.56	0.778661
	0.6	1.15957
	0.64	1.57042
	0.68	2.01259
	0.72	2.47253
	0.76	2.96509
	0.8	3.48351
	0.84	4.00413
	0.88	4.55228
	0.92	5.13497
	0.96	5.75051
	1	6.31597
	1.04	6.94165
	1.08	7.56288
	1.12	8.17178
	1.16	8.78698
	1.2	9.40441
	1.24	10.0133
	1.28	10.6268
	1.32	11.2377
	1.36	11.811
	1.4	12.3794
	1.44	12.9207
	1.48	13.3613
	1.52	13.7136
	1.56	13.9845
	1.6	14.183
	1.64	14.317
	1.68	14.393
	1.72	14.4169
	1.76	14.3346
	1.8	14.1224
	1.84	13.831
	1.88	13.5634
	1.92	13.5742
	1.96	13.9887
	2	14.7098
	2.04	15.8707
	2.08	17.3597
	2.12	19.0444
	2.16	21.0128
	2.2	23.0639
	2.24	25.3035
	2.28	27.2886
	2.32	29.2492
	2.36	30.9175
	2.4	32.5889
	2.44	34.2103
	2.48	35.5147
	2.52	36.6982
	2.56	37.5617
	2.6	38.2378
	2.64	38.7495
	2.68	39.1034
	2.72	39.3575
	2.76	39.5463
	2.8	39.681
	2.84	39.7705
	2.88	39.8245
	2.92	39.852
	2.96	39.8615
	3	39.8625
	3.04	39.8604
	3.08	39.8456
	3.12	39.8073
	3.16	39.7341
	3.2	39.6138
	3.24	39.4337
	3.28	39.1824
	3.32	38.8268
	3.36	38.2954
	3.4	37.5656
	3.44	36.6072
	3.48	35.2922
	3.52	33.7416
	3.56	31.8298
	3.6	29.8564
	3.64	27.6403
	3.68	25.273
	3.72	22.6541
	3.76	20.1694
	3.8	18.0378
	3.84	16.1495
	3.88	14.7093
	3.92	13.7449
	3.96	13.1153
	4	12.9082
	4.04	12.9082
	4.08	12.9082
	4.12	12.9082
	4.16	12.9082
	4.2	12.9082
	4.24	12.9082
	4.28	12.9082
	4.32	12.9082
	4.36	12.9082
	4.4	12.9082
	4.44	12.9082
	4.48	12.9082
	4.52	12.9082
	4.56	12.9082
	4.6	12.9082
	4.64	12.9082
	4.68	12.9082
	4.72	12.9082
	4.76	12.9082
	4.8	12.8951
	4.84	12.8419
	4.88	12.7486
	4.92	12.616
	4.96	12.4458
	5	12.242
	5.04	12.0117
	5.08	11.7588
	5.12	11.4759
	5.16	11.152
	5.2	10.7933
	5.24	10.4114
	5.28	10.0075
	5.32	9.58735
	5.36	9.14918
	5.4	8.68541
	5.44	8.21187
	5.48	7.98187
	5.52	8.26539
	5.56	8.84281
	5.6	9.90199
	5.64	11.2359
	5.68	12.9253
	5.72	14.7279
	5.76	16.457
	5.8	18.1529
	5.84	19.5748
	5.88	21.0742
	5.92	22.6517
	5.96	23.5513
	6	24.29
	6.04	24.8697
	6.08	25.3645
	6.12	25.8469
	6.16	26.2008
	6.2	26.3708
	6.24	26.4734
	6.28	26.4734
	6.32	26.4734
	6.36	26.4734
	6.4	26.4734
	6.44	26.4734
	6.48	26.4734
	6.52	26.4734
	6.56	26.4734
	6.6	26.4734
	6.64	26.4734
	6.68	26.4734
	6.72	26.4734
	6.76	26.4734
	6.8	26.4734
	6.84	26.4734
	6.88	26.4734
	6.92	26.4734
	6.96	26.4734
	7	26.4734
	7.04	26.4734
	7.08	26.4734
	7.12	26.4734
	7.16	26.4734
	7.2	26.4734
	7.24	26.2222
	7.28	25.5102
	7.32	24.5015
	7.36	23.2495
	7.4	21.7207
	7.44	20.1815
	7.48	18.4307
	7.52	16.4098
	7.56	14.4075
	7.6	12.1661
	7.64	9.9802
	7.68	7.95881
	7.72	6.17217
	7.76	4.51433
	7.8	2.99642
	7.84	1.9185
	7.88	1.12542
	7.92	0.490708
	7.96	0.127946
	8	0
}
anim RightUpperLidClose
{
	//Time   /    Value
	0.04	0
	0.08	0
	0.12	0
	0.16	0
	0.2	0
	0.24	0
	0.28	0
	0.32	0
	0.36	0
	0.4	0
	0.44	0
	0.48	0
	0.52	0.143141
	0.56	0.306087
	0.6	0.472716
	0.64	0.640299
	0.68	0.809139
	0.72	0.981716
	0.76	1.12965
	0.8	1.26227
	0.84	1.43033
	0.88	1.58228
	0.92	1.73479
	0.96	1.88639
	1	2.03731
	1.04	2.16738
	1.08	2.3129
	1.12	2.44633
	1.16	2.5811
	1.2	2.71566
	1.24	2.83686
	1.28	2.95442
	1.32	3.07165
	1.36	3.18274
	1.4	3.2977
	1.44	3.4107
	1.48	3.49313
	1.52	3.55725
	1.56	3.60803
	1.6	3.64551
	1.64	3.67092
	1.68	3.68535
	1.72	3.68991
	1.76	3.67425
	1.8	3.63404
	1.84	3.5792
	1.88	3.52519
	1.92	3.50564
	1.96	3.577
	2	3.83132
	2.04	4.19022
	2.08	4.54069
	2.12	5.05854
	2.16	5.69455
	2.2	6.37999
	2.24	7.16377
	2.28	8.03271
	2.32	8.98391
	2.36	9.90111
	2.4	10.7522
	2.44	11.7505
	2.48	12.2962
	2.52	12.6626
	2.56	12.9831
	2.6	13.3037
	2.64	13.5943
	2.68	13.8232
	2.72	14.0142
	2.76	14.1746
	2.8	14.3013
	2.84	14.3963
	2.88	14.4626
	2.92	14.5019
	2.96	14.516
	3	14.5091
	3.04	14.4871
	3.08	14.4472
	3.12	14.3854
	3.16	14.2978
	3.2	14.1789
	3.24	14.0267
	3.28	13.8425
	3.32	13.6183
	3.36	13.3238
	3.4	12.9814
	3.44	12.6325
	3.48	12.2184
	3.52	11.496
	3.56	10.412
	3.6	9.53549
	3.64	8.58484
	3.68	7.7189
	3.72	6.91185
	3.76	6.20798
	3.8	5.5908
	3.84	5.13215
	3.88	4.7537
	3.92	4.44898
	3.96	4.35361
	4	4.33481
	4.04	4.33481
	4.08	4.33481
	4.12	4.33481
	4.16	4.33481
	4.2	4.33481
	4.24	4.33481
	4.28	4.33481
	4.32	4.33481
	4.36	4.33481
	4.4	4.33481
	4.44	4.33481
	4.48	4.33481
	4.52	4.33481
	4.56	4.33481
	4.6	4.33481
	4.64	4.33481
	4.68	4.33481
	4.72	4.33481
	4.76	4.33481
	4.8	4.33218
	4.84	4.32148
	4.88	4.30232
	4.92	4.2745
	4.96	4.23836
	5	4.19547
	5.04	4.14886
	5.08	4.09914
	5.12	4.04431
	5.16	3.98175
	5.2	3.91296
	5.24	3.83984
	5.28	3.76233
	5.32	3.67926
	5.36	3.58882
	5.4	3.48448
	5.44	3.38123
	5.48	3.30143
	5.52	3.29401
	5.56	3.51737
	5.6	3.73058
	5.64	4.02574
	5.68	4.38233
	5.72	4.80558
	5.76	5.35074
	5.8	5.94433
	5.84	6.4975
	5.88	7.04762
	5.92	7.6998
	5.96	7.85367
	6	7.85367
	6.04	7.85367
	6.08	7.85367
	6.12	7.85367
	6.16	7.85367
	6.2	7.85367
	6.24	7.85367
	6.28	7.85367
	6.32	7.85367
	6.36	7.85367
	6.4	7.85367
	6.44	7.85367
	6.48	7.85367
	6.52	7.85367
	6.56	7.85367
	6.6	7.85367
	6.64	7.85367
	6.68	7.85367
	6.72	7.85367
	6.76	7.85367
	6.8	7.85367
	6.84	7.85367
	6.88	7.85367
	6.92	7.85367
	6.96	7.85367
	7	7.85367
	7.04	7.85367
	7.08	7.85367
	7.12	7.85367
	7.16	7.85367
	7.2	7.85367
	7.24	7.74922
	7.28	7.39151
	7.32	6.81826
	7.36	6.21927
	7.4	5.6751
	7.44	5.05111
	7.48	4.40303
	7.52	3.82071
	7.56	3.21316
	7.6	2.66509
	7.64	2.17447
	7.68	1.69949
	7.72	1.23803
	7.76	0.969203
	7.8	0.733211
	7.84	0.428542
	7.88	0.191948
	7.92	0.0764715
	7.96	0.0284941
	8	0
}
anim RightLowerLidClose
{
	//Time   /    Value
	0.04	0
	0.08	0
	0.12	0
	0.16	0
	0.2	0
	0.24	0
	0.28	0
	0.32	0
	0.36	0
	0.4	0
	0.44	0
	0.48	0
	0.52	0.303518
	0.56	0.673186
	0.6	1.11658
	0.64	1.66749
	0.68	2.37528
	0.72	3.19511
	0.76	4.14578
	0.8	5.28397
	0.84	6.60773
	0.88	8.21147
	0.92	9.98907
	0.96	11.9803
	1	14.0764
	1.04	16.2588
	1.08	18.5324
	1.12	20.8196
	1.16	23.128
	1.2	25.4144
	1.24	27.6199
	1.28	29.7646
	1.32	31.7967
	1.36	33.721
	1.4	35.5206
	1.44	37.0706
	1.48	38.2754
	1.52	39.1983
	1.56	39.8877
	1.6	40.3796
	1.64	40.703
	1.68	40.8826
	1.72	40.9387
	1.76	40.7448
	1.8	40.2309
	1.84	39.4991
	1.88	38.6755
	1.92	37.9173
	1.96	37.4586
	2	37.4649
	2.04	38.1077
	2.08	39.0784
	2.12	40.5014
	2.16	42.6641
	2.2	45.3911
	2.24	48.505
	2.28	51.6758
	2.32	54.7774
	2.36	57.3937
	2.4	59.7405
	2.44	61.3313
	2.48	62.5241
	2.52	63.4863
	2.56	64.2065
	2.6	64.7987
	2.64	65.2815
	2.68	65.6695
	2.72	65.9666
	2.76	66.1797
	2.8	66.3233
	2.84	66.4169
	2.88	66.4734
	2.92	66.5024
	2.96	66.5125
	3	66.5135
	3.04	66.5113
	3.08	66.4957
	3.12	66.4554
	3.16	66.3789
	3.2	66.2523
	3.24	66.0542
	3.28	65.7616
	3.32	65.3616
	3.36	64.8505
	3.4	64.2098
	3.44	63.4118
	3.48	62.3296
	3.52	60.9095
	3.56	58.748
	3.6	55.8066
	3.64	52.2162
	3.68	48.4584
	3.72	44.7993
	3.76	41.7098
	3.8	39.592
	3.84	38.2542
	3.88	37.4647
	3.92	37.1772
	3.96	37.0606
	4	37.0357
	4.04	37.0357
	4.08	37.0357
	4.12	37.0357
	4.16	37.0357
	4.2	37.0357
	4.24	37.0357
	4.28	37.0357
	4.32	37.0357
	4.36	37.0357
	4.4	37.0357
	4.44	37.0357
	4.48	37.0357
	4.52	37.0357
	4.56	37.0357
	4.6	37.0357
	4.64	37.0357
	4.68	37.0357
	4.72	37.0357
	4.76	37.0357
	4.8	36.9988
	4.84	36.8497
	4.88	36.5867
	4.92	36.2092
	4.96	35.7162
	5	35.1083
	5.04	34.3861
	5.08	33.5444
	5.12	32.5858
	5.16	31.5146
	5.2	30.3275
	5.24	29.0218
	5.28	27.5994
	5.32	26.085
	5.36	24.4737
	5.4	22.7485
	5.44	20.971
	5.48	19.187
	5.52	17.4814
	5.56	15.9289
	5.6	14.437
	5.64	13.3506
	5.68	13.5188
	5.72	14.9013
	5.76	17.169
	5.8	19.6739
	5.84	21.906
	5.88	23.86
	5.92	25.1597
	5.96	25.932
	6	26.3911
	6.04	27.0047
	6.08	27.4221
	6.12	27.9679
	6.16	28.2789
	6.2	28.4732
	6.24	28.5726
	6.28	28.5726
	6.32	28.5726
	6.36	28.5726
	6.4	28.5726
	6.44	28.5726
	6.48	28.5726
	6.52	28.5726
	6.56	28.5726
	6.6	28.5726
	6.64	28.5726
	6.68	28.5726
	6.72	28.5726
	6.76	28.5726
	6.8	28.5726
	6.84	28.5726
	6.88	28.5726
	6.92	28.5726
	6.96	28.5726
	7	28.5726
	7.04	28.5726
	7.08	28.5726
	7.12	28.5726
	7.16	28.5726
	7.2	28.5726
	7.24	28.3382
	7.28	27.6838
	7.32	26.6607
	7.36	25.1165
	7.4	23.0933
	7.44	20.7343
	7.48	17.9472
	7.52	15.1802
	7.56	12.2217
	7.6	9.50047
	7.64	6.92187
	7.68	4.80041
	7.72	3.23955
	7.76	2.08497
	7.8	1.25231
	7.84	0.592063
	7.88	0.296871
	7.92	0.106961
	7.96	0.0287881
	8	0
}
anim Frown_CAU4
{
	//Time   /    Value
	0.032	0
	0.04	0
	0.08	0
	0.12	0
	0.16	0
	0.2	0
	0.24	0
	0.28	0
	0.32	0
	0.36	0
	0.4	0
	0.44	0
	0.48	0
	0.52	0
	0.56	0
	0.6	0
	0.64	0
	0.68	0
	0.72	0
	0.76	0
	0.8	0
	0.84	0
	0.88	0
	0.92	0
	0.96	0
	1	0
	1.04	0
	1.08	0
	1.12	0
	1.16	0
	1.2	0
	1.24	0
	1.28	0
	1.32	0
	1.36	0
	1.4	0
	1.44	0
	1.48	0
	1.52	0
	1.56	0
	1.6	0
	1.64	0
	1.68	0
	1.72	0
	1.76	0
	1.8	0
	1.84	0
	1.88	0
	1.92	0.267084
	1.96	1.01865
	2	2.18015
	2.04	3.67706
	2.08	5.43485
	2.12	7.37897
	2.16	9.4349
	2.2	11.5281
	2.24	13.584
	2.28	15.5281
	2.32	17.2859
	2.36	18.7828
	2.4	19.9444
	2.44	20.6959
	2.48	20.963
	2.52	21.044
	2.56	21.268
	2.6	21.6064
	2.64	22.0306
	2.68	22.5119
	2.72	23.0219
	2.76	23.5318
	2.8	24.0132
	2.84	24.4373
	2.88	24.7757
	2.92	24.9997
	2.96	25.0807
	3	25.0114
	3.04	24.8183
	3.08	24.5241
	3.12	24.1511
	3.16	23.7219
	3.2	23.259
	3.24	22.7848
	3.28	22.3218
	3.32	21.8926
	3.36	21.5196
	3.4	21.2254
	3.44	21.0323
	3.48	20.963
	3.52	20.8378
	3.56	20.4916
	3.6	19.9687
	3.64	19.3131
	3.68	18.5692
	3.72	17.7811
	3.76	16.993
	3.8	16.2491
	3.84	15.5936
	3.88	15.0706
	3.92	14.7244
	3.96	14.5992
	4	14.5992
	4.04	14.5992
	4.08	14.5992
	4.12	14.5992
	4.16	14.5992
	4.2	14.5992
	4.24	14.5992
	4.28	14.5992
	4.32	14.5992
	4.36	14.5992
	4.4	14.5992
	4.44	14.5992
	4.48	14.5992
	4.52	14.5992
	4.56	14.5992
	4.6	14.5992
	4.64	14.5992
	4.68	14.5992
	4.72	14.5992
	4.76	14.5992
	4.8	14.5992
	4.84	14.5992
	4.88	14.5992
	4.92	14.5992
	4.96	14.5992
	5	14.5992
	5.04	14.5992
	5.08	14.5992
	5.12	14.5992
	5.16	14.5992
	5.2	14.5992
	5.24	14.5992
	5.28	14.5992
	5.32	14.5992
	5.36	14.5992
	5.4	14.5992
	5.44	14.5992
	5.48	14.5992
	5.52	14.5992
	5.56	14.5992
	5.6	14.5992
	5.64	14.5992
	5.68	14.5992
	5.72	14.5992
	5.76	14.5992
	5.8	14.5992
	5.84	14.5992
	5.88	14.5992
	5.92	14.5992
	5.96	14.5992
	6	14.5992
	6.04	14.5992
	6.08	14.5992
	6.12	14.5992
	6.16	14.5992
	6.2	14.5992
	6.24	14.5992
	6.28	14.5992
	6.32	14.5992
	6.36	14.5992
	6.4	14.5992
	6.44	14.5992
	6.48	14.5992
	6.52	14.5992
	6.56	14.5992
	6.6	14.5992
	6.64	14.5992
	6.68	14.5992
	6.72	14.5992
	6.76	14.5992
	6.8	14.5992
	6.84	14.5992
	6.88	14.5992
	6.92	14.5992
	6.96	14.5992
	7	14.5992
	7.04	14.5992
	7.08	14.5992
	7.12	14.5992
	7.16	14.5992
	7.2	14.5992
	7.24	14.5281
	7.28	14.3218
	7.32	13.9915
	7.36	13.5481
	7.4	13.0024
	7.44	12.3655
	7.48	11.6484
	7.52	10.8618
	7.56	10.0169
	7.6	9.12452
	7.64	8.19564
	7.68	7.24122
	7.72	6.2722
	7.76	5.29951
	7.8	4.33414
	7.84	3.38702
	7.88	2.46909
	7.92	1.59131
	7.96	0.764634
	8	0
}
anim LidT_CAU7
{
	//Time   /    Value
	0.032	0
	0.04	0
	0.08	0
	0.12	0
	0.16	0
	0.2	0
	0.24	0
	0.28	0
	0.32	0
	0.36	0
	0.4	0
	0.44	0
	0.48	0
	0.52	0
	0.56	0
	0.6	0
	0.64	0
	0.68	0
	0.72	0
	0.76	0
	0.8	0
	0.84	0
	0.88	0
	0.92	0
	0.96	0
	1	0
	1.04	0
	1.08	0
	1.12	0
	1.16	0
	1.2	0
	1.24	0
	1.28	0
	1.32	0
	1.36	0
	1.4	0
	1.44	0
	1.48	0
	1.52	0
	1.56	0
	1.6	0
	1.64	0
	1.68	0
	1.72	0
	1.76	0
	1.8	0
	1.84	0
	1.88	0.122349
	1.92	0.836358
	1.96	2.11958
	2	3.89308
	2.04	6.07793
	2.08	8.5952
	2.12	11.366
	2.16	14.3113
	2.2	17.3522
	2.24	20.4099
	2.28	23.4053
	2.32	26.2595
	2.36	28.8937
	2.4	31.2288
	2.44	33.186
	2.48	34.7105
	2.52	35.9782
	2.56	37.0537
	2.6	37.9528
	2.64	38.691
	2.68	39.2843
	2.72	39.7482
	2.76	40.0986
	2.8	40.3512
	2.84	40.5217
	2.88	40.6258
	2.92	40.6793
	2.96	40.6979
	3	40.6999
	3.04	40.6958
	3.08	40.6669
	3.12	40.5926
	3.16	40.4521
	3.2	40.2247
	3.24	39.8897
	3.28	39.4263
	3.32	38.8138
	3.36	38.0316
	3.4	37.0588
	3.44	35.8748
	3.48	34.4589
	3.52	32.6447
	3.56	30.1968
	3.6	27.2421
	3.64	23.9178
	3.68	20.3611
	3.72	16.7091
	3.76	13.0991
	3.8	9.66812
	3.84	6.55337
	3.88	3.89201
	3.92	1.82122
	3.96	0.478167
	4	0
	4.04	0
	4.08	0
	4.12	0
	4.16	0
	4.2	0
	4.24	0
	4.28	0
	4.32	0
	4.36	0
	4.4	0
	4.44	0
	4.48	0
	4.52	0
	4.56	0
	4.6	0
	4.64	0
	4.68	0
	4.72	0
	4.76	0
	4.8	0
	4.84	0
	4.88	0
	4.92	0
	4.96	0
	5	0
	5.04	0
	5.08	0
	5.12	0
	5.16	0
	5.2	0
	5.24	0
	5.28	0
	5.32	0
	5.36	0
	5.4	0
	5.44	0
	5.48	0.582486
	5.52	2.20192
	5.56	4.66629
	5.6	7.78355
	5.64	11.3617
	5.68	15.2086
	5.72	19.1324
	5.76	22.941
	5.8	26.4423
	5.84	29.4444
	5.88	31.7551
	5.92	33.1825
	5.96	33.5594
	6	33.5594
	6.04	33.5594
	6.08	33.5594
	6.12	33.5594
	6.16	33.5594
	6.2	33.5594
	6.24	33.5594
	6.28	33.5594
	6.32	33.5594
	6.36	33.5594
	6.4	33.5594
	6.44	33.5594
	6.48	33.5594
	6.52	33.5594
	6.56	33.5594
	6.6	33.5594
	6.64	33.5594
	6.68	33.5594
	6.72	33.5594
	6.76	33.5594
	6.8	33.5594
	6.84	33.5594
	6.88	33.5594
	6.92	33.5594
	6.96	33.5594
	7	33.5594
	7.04	33.5594
	7.08	33.5594
	7.12	33.5594
	7.16	33.5594
	7.2	33.5594
	7.24	33.3161
	7.28	32.6198
	7.32	31.5207
	7.36	30.0692
	7.4	28.3158
	7.44	26.3106
	7.48	24.1041
	7.52	21.7465
	7.56	19.2883
	7.6	16.7797
	7.64	14.2712
	7.68	11.8129
	7.72	9.45538
	7.76	7.24882
	7.8	5.24365
	7.84	3.49017
	7.88	2.03873
	7.92	0.939662
	7.96	0.243305
	8	0
}
anim NosW_CAU9
{
	//Time   /    Value
	0.032	0
	0.04	0
	0.08	0
	0.12	0
	0.16	0
	0.2	0
	0.24	0
	0.28	0
	0.32	0
	0.36	0
	0.4	0
	0.44	0
	0.48	0
	0.52	2.46787
	0.56	4.96588
	0.6	7.48949
	0.64	10.0342
	0.68	12.5955
	0.72	15.1688
	0.76	17.7497
	0.8	20.3335
	0.84	22.9159
	0.88	25.4922
	0.92	28.058
	0.96	30.6088
	1	33.1399
	1.04	35.6469
	1.08	38.1254
	1.12	40.5706
	1.16	42.9783
	1.2	45.3437
	1.24	47.6624
	1.28	49.9299
	1.32	52.1417
	1.36	54.2932
	1.4	56.3799
	1.44	58.2635
	1.48	59.8234
	1.52	61.082
	1.56	62.0616
	1.6	62.7847
	1.64	63.2734
	1.68	63.5503
	1.72	63.6377
	1.76	63.3375
	1.8	62.5635
	1.84	61.5052
	1.88	60.3521
	1.92	59.2937
	1.96	58.5197
	2	58.2196
	2.04	58.2196
	2.08	58.2196
	2.12	58.2196
	2.16	58.2196
	2.2	58.2196
	2.24	58.2196
	2.28	58.2196
	2.32	58.2196
	2.36	58.2196
	2.4	58.2196
	2.44	58.2196
	2.48	58.2196
	2.52	58.2196
	2.56	58.2196
	2.6	58.2196
	2.64	58.2196
	2.68	58.2196
	2.72	58.2196
	2.76	58.2196
	2.8	58.2196
	2.84	58.2196
	2.88	58.2196
	2.92	58.2196
	2.96	58.2196
	3	58.2196
	3.04	58.2196
	3.08	58.2196
	3.12	58.2196
	3.16	58.2196
	3.2	58.2196
	3.24	58.2196
	3.28	58.2196
	3.32	58.2196
	3.36	58.2196
	3.4	58.2196
	3.44	58.2196
	3.48	58.2196
	3.52	58.2196
	3.56	58.2196
	3.6	58.2196
	3.64	58.2196
	3.68	58.2196
	3.72	58.2196
	3.76	58.2196
	3.8	58.2196
	3.84	58.2196
	3.88	58.2196
	3.92	58.2196
	3.96	58.2196
	4	58.2196
	4.04	58.2196
	4.08	58.2196
	4.12	58.2196
	4.16	58.2196
	4.2	58.2196
	4.24	58.2196
	4.28	58.2196
	4.32	58.2196
	4.36	58.2196
	4.4	58.2196
	4.44	58.2196
	4.48	58.2196
	4.52	58.2196
	4.56	58.2196
	4.6	58.2196
	4.64	58.2196
	4.68	58.2196
	4.72	58.2196
	4.76	58.2196
	4.8	58.1733
	4.84	57.9872
	4.88	57.6623
	4.92	57.2026
	4.96	56.6119
	5	55.8942
	5.04	55.0533
	5.08	54.0932
	5.12	53.0178
	5.16	51.8309
	5.2	50.5366
	5.24	49.1386
	5.28	47.6409
	5.32	46.0474
	5.36	44.3621
	5.4	42.5888
	5.44	40.7314
	5.48	38.7938
	5.52	36.78
	5.56	34.5478
	5.6	31.5659
	5.64	27.9207
	5.68	23.7676
	5.72	19.2622
	5.76	14.5599
	5.8	9.81611
	5.84	5.18635
	5.88	0.826038
	5.92	0
	5.96	0
	6	0
	6.04	0
	6.08	0
	6.12	0
	6.16	0
	6.2	0
	6.24	0
	6.28	0
	6.32	0
	6.36	0
	6.4	0
	6.44	0
	6.48	0
	6.52	0
	6.56	0
	6.6	0
	6.64	0
	6.68	0
	6.72	0
	6.76	0
	6.8	0
	6.84	0
	6.88	0
	6.92	0
	6.96	0
	7	0
	7.04	0
	7.08	0
	7.12	0
	7.16	0
	7.2	0
	7.24	0
	7.28	0
	7.32	0
	7.36	0
	7.4	0
	7.44	0
	7.48	0
	7.52	0
	7.56	0
	7.6	0
	7.64	0
	7.68	0
	7.72	0
	7.76	0
	7.8	0
	7.84	0
	7.88	0
	7.92	0
	7.96	0
	8	0
}
anim CorD_CAU15
{
	//Time   /    Value
	0.04	0
	0.08	0
	0.12	0
	0.16	0
	0.2	0
	0.24	0
	0.28	0
	0.32	0
	0.36	0
	0.4	0
	0.44	0
	0.48	0
	0.52	0
	0.56	0
	0.6	0
	0.64	0
	0.68	0
	0.72	0
	0.76	0
	0.8	0
	0.84	0
	0.88	0
	0.92	0
	0.96	0
	1	0
	1.04	0
	1.08	0
	1.12	0
	1.16	0
	1.2	0
	1.24	0
	1.28	0
	1.32	0
	1.36	0
	1.4	0
	1.44	0
	1.48	0
	1.52	0
	1.56	0
	1.6	0
	1.64	0
	1.68	0
	1.72	0
	1.76	0
	1.8	0
	1.84	0
	1.88	0
	1.92	0
	1.96	0
	2	0
	2.04	0
	2.08	0
	2.12	0
	2.16	0
	2.2	0
	2.24	0
	2.28	0
	2.32	0
	2.36	0
	2.4	0
	2.44	0
	2.48	0
	2.52	0
	2.56	0
	2.6	0
	2.64	0
	2.68	0
	2.72	0
	2.76	0
	2.8	0
	2.84	0
	2.88	0
	2.92	0
	2.96	0
	3	0
	3.04	0
	3.08	0
	3.12	0
	3.16	0
	3.2	0
	3.24	0
	3.28	0
	3.32	0
	3.36	0
	3.4	0
	3.44	0
	3.48	0
	3.52	0
	3.56	0
	3.6	0
	3.64	0
	3.68	0
	3.72	0
	3.76	0
	3.8	0
	3.84	0
	3.88	0
	3.92	0
	3.96	0
	4	0
	4.04	0
	4.08	0
	4.12	0
	4.16	0
	4.2	0
	4.24	0
	4.28	0
	4.32	0
	4.36	0
	4.4	0
	4.44	0
	4.48	0
	4.52	0
	4.56	0
	4.6	0
	4.64	0
	4.68	0
	4.72	0
	4.76	0
	4.8	0
	4.84	0
	4.88	0
	4.92	0
	4.96	0
	5	0
	5.04	0
	5.08	0
	5.12	0
	5.16	0
	5.2	0
	5.24	0
	5.28	0
	5.32	0
	5.36	0
	5.4	0
	5.44	0
	5.48	0
	5.52	0
	5.56	0
	5.6	0
	5.64	0
	5.68	0
	5.72	0
	5.76	0.37689
	5.8	1.8043
	5.84	4.11505
	5.88	7.1171
	5.92	10.6184
	5.96	14.427
	6	18.3508
	6.04	22.1977
	6.08	25.7759
	6.12	28.8931
	6.16	31.3575
	6.2	32.9769
	6.24	33.5594
	6.28	33.5594
	6.32	33.5594
	6.36	33.5594
	6.4	33.5594
	6.44	33.5594
	6.48	33.5594
	6.52	33.5594
	6.56	33.5594
	6.6	33.5594
	6.64	33.5594
	6.68	33.5594
	6.72	33.5594
	6.76	33.5594
	6.8	33.5594
	6.84	33.5594
	6.88	33.5594
	6.92	33.5594
	6.96	33.5594
	7	33.5594
	7.04	33.5594
	7.08	33.5594
	7.12	33.5594
	7.16	33.5594
	7.2	33.5594
	7.24	33.3161
	7.28	32.6198
	7.32	31.5207
	7.36	30.0692
	7.4	28.3158
	7.44	26.3106
	7.48	24.1041
	7.52	21.7465
	7.56	19.2883
	7.6	16.7797
	7.64	14.2712
	7.68	11.8129
	7.72	9.45538
	7.76	7.24882
	7.8	5.24365
	7.84	3.49017
	7.88	2.03873
	7.92	0.939662
	7.96	0.243305
	8	0
}
anim JawUp_CAU17
{
	//Time   /    Value
	0.04	0
	0.08	0
	0.12	0
	0.16	0
	0.2	0
	0.24	0
	0.28	0
	0.32	0
	0.36	0
	0.4	0
	0.44	0
	0.48	0
	0.52	0
	0.56	0
	0.6	0
	0.64	0
	0.68	0
	0.72	0
	0.76	0
	0.8	0
	0.84	0
	0.88	0
	0.92	0
	0.96	0
	1	0
	1.04	0
	1.08	0
	1.12	0
	1.16	0
	1.2	0
	1.24	0
	1.28	0
	1.32	0
	1.36	0
	1.4	0
	1.44	0
	1.48	0
	1.52	0
	1.56	0
	1.6	0
	1.64	0
	1.68	0
	1.72	0
	1.76	0
	1.8	0
	1.84	0
	1.88	0
	1.92	0
	1.96	0
	2	0
	2.04	0
	2.08	0
	2.12	0
	2.16	0
	2.2	0
	2.24	0
	2.28	0
	2.32	0
	2.36	0
	2.4	0
	2.44	0
	2.48	0
	2.52	0
	2.56	0
	2.6	0
	2.64	0
	2.68	0
	2.72	0
	2.76	0
	2.8	0
	2.84	0
	2.88	0
	2.92	0
	2.96	0
	3	0
	3.04	0
	3.08	0
	3.12	0
	3.16	0
	3.2	0
	3.24	0
	3.28	0
	3.32	0
	3.36	0
	3.4	0
	3.44	0
	3.48	0
	3.52	0
	3.56	0
	3.6	0
	3.64	0
	3.68	0
	3.72	0
	3.76	0
	3.8	0
	3.84	0
	3.88	0
	3.92	0
	3.96	0
	4	0
	4.04	0
	4.08	0
	4.12	0
	4.16	0
	4.2	0
	4.24	0
	4.28	0
	4.32	0
	4.36	0
	4.4	0
	4.44	0
	4.48	0
	4.52	0
	4.56	0
	4.6	0
	4.64	0
	4.68	0
	4.72	0
	4.76	0
	4.8	0
	4.84	0
	4.88	0
	4.92	0
	4.96	0
	5	0
	5.04	0
	5.08	0
	5.12	0
	5.16	0
	5.2	0
	5.24	0
	5.28	0
	5.32	0
	5.36	0
	5.4	0
	5.44	0
	5.48	0
	5.52	0
	5.56	0
	5.6	0
	5.64	0
	5.68	0
	5.72	0
	5.76	0.740784
	5.8	3.54639
	5.84	8.0882
	5.88	13.9888
	5.92	20.8707
	5.96	28.3565
	6	36.0688
	6.04	43.6301
	6.08	50.6629
	6.12	56.79
	6.16	61.6337
	6.2	64.8168
	6.24	65.9617
	6.28	65.9617
	6.32	65.9617
	6.36	65.9617
	6.4	65.9617
	6.44	65.9617
	6.48	65.9617
	6.52	65.9617
	6.56	65.9617
	6.6	65.9617
	6.64	65.9617
	6.68	65.9617
	6.72	65.9617
	6.76	65.9617
	6.8	65.9617
	6.84	65.9617
	6.88	65.9617
	6.92	65.9617
	6.96	65.9617
	7	65.9617
	7.04	65.9617
	7.08	65.9617
	7.12	65.9617
	7.16	65.9617
	7.2	65.9617
	7.24	65.4834
	7.28	64.1147
	7.32	61.9545
	7.36	59.1016
	7.4	55.6551
	7.44	51.7139
	7.48	47.3769
	7.52	42.7431
	7.56	37.9115
	7.6	32.9808
	7.64	28.0502
	7.68	23.2185
	7.72	18.5847
	7.76	14.2477
	7.8	10.3065
	7.84	6.86
	7.88	4.00716
	7.92	1.84692
	7.96	0.478221
	8	0
}
