anim Clip_Length
{
  7.4 0
}
anim Clip_GazeHRight
{
	//Time   /    Value
	0	0
	0.08	0
	0.16	0
	0.24	0
	0.32	0
	0.4	0
	0.48	0
	0.56	0
	0.64	0
	0.72	0
	0.8	0
	0.88	0
	0.96	0
	1.04	11.3964
	1.12	61.5406
	1.2	72.937
	1.28	72.937
	1.36	72.9827
	1.44	73.2185
	1.52	73.3586
	1.6	73.0572
	1.68	71.9684
	1.76	69.7464
	1.84	48.9736
	1.92	0
	2	0
	2.08	0
	2.16	0
	2.24	0
	2.32	0
	2.4	0
	2.48	0
	2.56	3.3293
	2.64	12.2918
	2.72	13.3196
	2.8	13.4681
	2.88	12.7986
	2.96	11.1062
	3.04	7.48654
	3.12	3.3504
	3.2	0.445071
	3.28	0
	3.36	0
	3.44	0
	3.52	0
	3.6	0
	3.68	0
	3.76	0
	3.84	0
	3.92	0
	4	0
	4.08	0
	4.16	0
	4.24	0
	4.32	0
	4.4	0
	4.48	0
	4.56	0
	4.64	0
	4.72	0
	4.8	0
	4.88	0
	4.96	0
	5.04	0
	5.12	0
	5.2	0
	5.28	0
	5.36	0
	5.44	0
	5.52	0
	5.6	0
	5.68	0
	5.76	0
	5.84	0
	5.92	0
	6	0
	6.08	0
	6.16	0
    7.4 0
}
anim Clip_GazeHLeft
{
	//Time   /    Value
	0	0
	0.08	0
	0.16	0
	0.24	0
	0.32	0
	0.4	0
	0.48	0
	0.56	0
	0.64	0
	0.72	0
	0.8	0
	0.88	0
	0.96	0
	1.04	0
	1.12	0
	1.2	0
	1.28	0
	1.36	0
	1.44	0
	1.52	0
	1.6	0
	1.68	0
	1.76	0
	1.84	0
	1.92	41.4859
	2	51.4112
	2.08	57.3727
	2.16	59.9444
	2.24	59.7004
	2.32	57.2148
	2.4	53.0616
	2.48	47.8151
	2.56	0
	2.64	0
	2.72	0
	2.8	0
	2.88	0
	2.96	0
	3.04	0
	3.12	0
	3.2	0
	3.28	0
	3.36	0
	3.44	0
	3.52	0
	3.6	0
	3.68	0
	3.76	0
	3.84	0
	3.92	0
	4	0
	4.08	0
	4.16	0
	4.24	0
	4.32	0
	4.4	0
	4.48	0
	4.56	0
	4.64	0
	4.72	0
	4.8	0
	4.88	0
	4.96	0
	5.04	0
	5.12	0
	5.2	0
	5.28	0
	5.36	0
	5.44	0
	5.52	0
	5.6	0
	5.68	0
	5.76	0
	5.84	0
	5.92	0
	6	0
	6.08	0
	6.16	0
    7.4 0
}
anim Clip_GazeVUp
{
	//Time   /    Value
	0	2.27374e-013
	0.08	2.27374e-013
	0.16	2.27374e-013
	0.24	2.27374e-013
	0.32	2.27374e-013
	0.4	2.27374e-013
	0.48	2.27374e-013
	0.56	2.27374e-013
	0.64	2.27374e-013
	0.72	2.27374e-013
	0.8	2.27374e-013
	0.88	2.27374e-013
	0.96	2.27374e-013
	1.04	0
	1.12	0
	1.2	0
	1.28	0
	1.36	0
	1.44	0
	1.52	0
	1.6	0
	1.68	0
	1.76	0
	1.84	2.27374e-013
	1.92	0
	2	0
	2.08	0
	2.16	0
	2.24	0
	2.32	0
	2.4	0
	2.48	0
	2.56	0
	2.64	0.514877
	2.72	3.33826
	2.8	3.35632
	2.88	2.56824
	2.96	2.47753
	3.04	1.67024
	3.12	0.528141
	3.2	0
	3.28	0.88189
	3.36	4.49999
	3.44	7.21838
	3.52	5.61918
	3.6	1.33076
	3.68	0
	3.76	0
	3.84	0
	3.92	0
	4	0
	4.08	0
	4.16	0
	4.24	0
	4.32	0
	4.4	0
	4.48	0
	4.56	0
	4.64	0
	4.72	0
	4.8	0
	4.88	0
	4.96	0
	5.04	0
	5.12	0
	5.2	0
	5.28	0
	5.36	0
	5.44	0
	5.52	2.27374e-013
	5.6	2.27374e-013
	5.68	2.27374e-013
	5.76	2.27374e-013
	5.84	2.27374e-013
	5.92	2.27374e-013
	6	2.27374e-013
	6.08	2.27374e-013
	6.16	2.27374e-013
    7.4 0
}
anim Clip_GazeVDown
{
	//Time   /    Value
	0	0
	0.08	0
	0.16	0
	0.24	0
	0.32	0
	0.4	0
	0.48	0
	0.56	0
	0.64	0
	0.72	0
	0.8	0
	0.88	0
	0.96	0
	1.04	0.240227
	1.12	1.29723
	1.2	1.53745
	1.28	1.53745
	1.36	1.5072
	1.44	1.29723
	1.52	0.95913
	1.6	0.578325
	1.68	0.240227
	1.76	0.0302508
	1.84	0
	1.92	42.0979
	2	46.0772
	2.08	48.3558
	2.16	49.0698
	2.24	48.3552
	2.32	46.3478
	2.4	43.1837
	2.48	38.9989
	2.56	13.1771
	2.64	0
	2.72	0
	2.8	0
	2.88	0
	2.96	0
	3.04	0
	3.12	0
	3.2	0.120073
	3.28	0
	3.36	0
	3.44	0
	3.52	0
	3.6	0
	3.68	4.20216
	3.76	9.95208
	3.84	14.8916
	3.92	17.9931
	4	18.6406
	4.08	18.6668
	4.16	18.4602
	4.24	18.0416
	4.32	17.4319
	4.4	16.6519
	4.48	15.7225
	4.56	14.6645
	4.64	13.4988
	4.72	12.2462
	4.8	10.9276
	4.88	9.56381
	4.96	8.1757
	5.04	6.78411
	5.12	5.4099
	5.2	4.07391
	5.28	2.79699
	5.36	1.60001
	5.44	0.503799
	5.52	0
	5.6	0
	5.68	0
	5.76	0
	5.84	0
	5.92	0
	6	0
	6.08	0
	6.16	0
    7.4 0
}
anim Clip_IBrowU_CAU1
{
	//Time   /    Value
	0	0
	0.2	0
	0.72	0
	3.24	0
	5.48	0
    7.4 0
}
anim Clip_R_OBrowU_RAU2
{
	//Time   /    Value
	0	0
	0.2	0
	0.72	0
	3.44	0
	3.72	29.5046
	3.96	0
	5.48	0
    7.4 0
}
anim Clip_L_OBrowU_LAU2
{
	//Time   /    Value
	0	0
	0.2	0
	0.72	0
	3.44	0
	3.72	29.5046
	3.96	0
	5.48	0
    7.4 0
}
anim Clip_BrowU_CAU1_2
{
	//Time   /    Value
	0	0
	0.2	0
	0.72	0
	3.24	0
	5.48	0
    7.4 0
}
anim Clip_BrowU_RAU1_2
{
	//Time   /    Value
	0	0
	0.2	0
	0.72	0
	3.24	0
	5.48	0
    7.4 0
}
anim Clip_BrowU_LAU1_2
{
	//Time   /    Value
	0	0
	0.2	0
	0.72	0
	3.24	0
	5.48	0
    7.4 0
}
anim Clip_R_Frown_RAU4
{
	//Time   /    Value
	0	0
	0.2	0
	0.72	0
	3.24	0
	5.48	0
    7.4 0
}
anim Clip_L_Frown_LAU4
{
	//Time   /    Value
	0	0
	0.2	0
	0.72	0
	3.24	0
	5.48	0
    7.4 0
}
anim Clip_Frown_CAU4
{
	//Time   /    Value
	0	0
	0.2	0
	0.72	0
	3.24	0
	5.48	0
    7.4 0
}
anim Clip_SadBr_CAU1_4
{
	//Time   /    Value
	0	0
	0.2	0
	0.72	0
	3.24	0
	3.4	100
	3.76	67.985
	4.76	68.9997
	5.32	59.8787
	5.8	0
    7.4 0
}
anim Clip_R_ChkU_RAU6
{
	//Time   /    Value
	0	0
	0.2	0
	0.72	0
	3.24	0
	5.48	0
    7.4 0
}
anim Clip_L_ChkU_LAU6
{
	//Time   /    Value
	0	0
	0.2	0
	0.72	0
	3.24	0
	5.48	0
    7.4 0
}
anim Clip_ChkU_CAU6
{
	//Time   /    Value
	0	0
	0.2	0
	0.72	0
	3.24	0
	5.48	0
    7.4 0
}
anim Clip_R_LidT_RAU7
{
	//Time   /    Value
	0	0
	0.2	0
	0.72	0
	3.24	0
	5.48	0
    7.4 0
}
anim Clip_L_LidT_LAU7
{
	//Time   /    Value
	0	0
	0.2	0
	0.72	0
	3.24	0
	5.48	0
    7.4 0
}
anim Clip_LidT_CAU7
{
	//Time   /    Value
	0	0
	0.2	0
	0.72	0
	3.24	0
	5.48	0
    7.4 0
}
anim Clip_R_EyeSq_RAU743
{
	//Time   /    Value
	0	0
	0.2	0
	0.72	0
	3.24	0
	5.48	0
    7.4 0
}
anim Clip_L_EyeSq_LAU743
{
	//Time   /    Value
	0	0
	0.2	0
	0.72	0
	3.24	0
	5.48	0
    7.4 0
}
anim Clip_EyeSq_CAU743
{
	//Time   /    Value
	0	0
	0.2	0
	0.72	0
	3.24	0
	3.4	100
	3.52	0
	5.48	0
    7.4 0
}
anim Clip_R_NosW_RAU9
{
	//Time   /    Value
	0	0
	0.2	0
	0.72	0
	3.24	0
	5.48	0
    7.4 0
}
anim Clip_L_NosW_LAU9
{
	//Time   /    Value
	0	0
	0.2	0
	0.72	0
	3.24	0
	5.48	0
    7.4 0
}
anim Clip_NosW_CAU9
{
	//Time   /    Value
	0	0
	0.2	0
	0.72	0
	3.24	0
	5.48	0
    7.4 0
}
anim Clip_R_NosF_RAU11
{
	//Time   /    Value
	0	0
	0.2	0
	0.72	0
	3.24	0
	5.48	0
    7.4 0
}
anim Clip_L_NosF_LAU11
{
	//Time   /    Value
	0	0
	0.2	0
	0.72	0
	3.24	0
	5.48	0
    7.4 0
}
anim Clip_NosF_CAU11
{
	//Time   /    Value
	0	0
	0.2	0
	0.72	0
	3.24	0
	3.4	100
	5.32	42.8303
	5.96	0
    7.4 0
}
anim Clip_R_LipsU_RAU10
{
	//Time   /    Value
	0	0
	0.2	0
	0.72	0
	3.24	0
	5.48	0
    7.4 0
}
anim Clip_L_LipsU_LAU10
{
	//Time   /    Value
	0	0
	0.2	0
	0.72	0
	3.24	0
	5.48	0
    7.4 0
}
anim Clip_LipsU_CAU10
{
	//Time   /    Value
	0	0
	0.2	0
	0.72	0
	3.24	0
	5.48	0
    7.4 0
}
anim Clip_R_ULipU_RAU1025
{
	//Time   /    Value
	0	0
	0.2	0
	0.72	0
	3.24	0
	5.48	0
    7.4 0
}
anim Clip_L_ULipU_LAU1025
{
	//Time   /    Value
	0	0
	0.2	0
	0.72	0
	3.24	0
	5.48	0
    7.4 0
}
anim Clip_ULipU_CAU1025
{
	//Time   /    Value
	0	0
	0.2	0
	0.72	0
	3.24	0
	5.48	0
    7.4 0
}
anim Clip_R_LLipD_RAU16
{
	//Time   /    Value
	0	0
	0.2	0
	0.72	0
	3.24	0
	5.48	0
    7.4 0
}
anim Clip_L_LLipD_LAU16
{
	//Time   /    Value
	0	0
	0.2	0
	0.72	0
	3.24	0
	5.48	0
    7.4 0
}
anim Clip_LLipD_CAU16
{
	//Time   /    Value
	0	0
	0.2	0
	0.72	0
	3.24	0
	5.48	0
    7.4 0
}
anim Clip_R_Smile_RAU12
{
	//Time   /    Value
	0	0
	0.2	0
	0.72	0
	3.24	0
	5.48	0
    7.4 0
}
anim Clip_L_Smile_LAU12
{
	//Time   /    Value
	0	0
	0.2	0
	0.72	0
	3.24	0
	5.48	0
    7.4 0
}
anim Clip_Smile_CAU12
{
	//Time   /    Value
	0	0
	0.2	0
	0.56	32.0446
	0.96	0
	3.24	0
	5.48	0
    7.4 0
}
anim Clip_R_OSmil_RAU1225
{
	//Time   /    Value
	0	0
	0.2	0
	0.72	0
	3.24	0
	5.48	0
    7.4 0
}
anim Clip_L_OSmil_LAU1225
{
	//Time   /    Value
	0	0
	0.2	0
	0.72	0
	3.24	0
	5.48	0
    7.4 0
}
anim Clip_OSmil_CAU1225
{
	//Time   /    Value
	0	0
	0.2	0
	0.72	0
	3.24	0
	5.48	0
    7.4 0
}
anim Clip_R_Smirk_RAU13
{
	//Time   /    Value
	0	0
	0.2	0
	0.72	0
	3.24	0
	5.48	0
    7.4 0
}
anim Clip_L_Smirk_LAU13
{
	//Time   /    Value
	0	0
	0.2	0
	0.72	0
	3.24	0
	5.48	0
    7.4 0
}
anim Clip_Smirk_CAU13
{
	//Time   /    Value
	0	0
	0.2	0
	0.72	0
	3.24	0
	5.48	0
    7.4 0
}
anim Clip_R_Dimpl_RAU14
{
	//Time   /    Value
	0	0
	0.2	0
	0.72	0
	3.24	0
	5.48	0
    7.4 0
}
anim Clip_L_Dimpl_LAU14
{
	//Time   /    Value
	0	0
	0.2	0
	0.72	0
	3.24	0
	5.48	0
    7.4 0
}
anim Clip_Dimpl_CAU14
{
	//Time   /    Value
	0	0
	0.2	0
	0.72	0
	3.24	0
	5.48	0
    7.4 0
}
anim Clip_R_LipSt_RAU20
{
	//Time   /    Value
	0	0
	0.2	0
	0.72	0
	3.24	0
	5.48	0
    7.4 0
}
anim Clip_L_LipSt_LAU20
{
	//Time   /    Value
	0	0
	0.2	0
	0.72	0
	3.24	0
	5.48	0
    7.4 0
}
anim Clip_LipSt_CAU20
{
	//Time   /    Value
	0	0
	0.2	0
	0.72	0
	3.24	0
	3.6	60.7622
	4.96	72.2017
	5.32	62.192
	5.64	14.8232
	5.84	-0.27162
    7.4 0
}
anim Clip_R_CorD_RAU15
{
	//Time   /    Value
	0	0
	0.2	0
	0.72	0
	3.24	0
	5.48	0
    7.4 0
}
anim Clip_L_CorD_LAU15
{
	//Time   /    Value
	0	0
	0.2	0
	0.72	0
	3.24	0
	5.48	0
    7.4 0
}
anim Clip_CorD_CAU15
{
	//Time   /    Value
	0	0
	0.2	0
	0.72	0
	3.24	0
	5.48	0
    7.4 0
}
anim Clip_C_Kiss_CAU18
{
	//Time   /    Value
	0	0
	0.2	0
	0.72	0
	3.24	0
	5.48	0
    7.4 0
}
anim Clip_D_LipFn_DAU22
{
	//Time   /    Value
	0	0
	0.2	0
	0.72	0
	3.24	0
	5.48	0
    7.4 0
}
anim Clip_U_LipFn_UAU22
{
	//Time   /    Value
	0	0
	0.2	0
	0.72	0
	3.24	0
	5.48	0
    7.4 0
}
anim Clip_LipFn_CAU22
{
	//Time   /    Value
	0	0
	0.2	0
	0.72	0
	3.24	0
	5.48	0
    7.4 0
}
anim Clip_LipTi_CAU23
{
	//Time   /    Value
	0	0
	0.2	0
	0.72	0
	3.24	0
	5.48	0
    7.4 0
}
anim Clip_D_LipTi_DAU23
{
	//Time   /    Value
	0	0
	0.2	0
	0.72	0
	3.24	0
	5.48	0
    7.4 0
}
anim Clip_U_LipTi_UAU23
{
	//Time   /    Value
	0	0
	0.2	0
	0.72	0
	3.24	0
	5.48	0
    7.4 0
}
anim Clip_X2_CAUX2
{
	//Time   /    Value
	0	0
	0.2	0
	0.72	0
	3.24	0
	3.4	51.6996
	3.76	92.1369
	4.44	87.07
	4.76	26.5339
	5.2	40.9695
	5.32	35.1658
	5.96	0
    7.4 0
}
anim Clip_D_LipP_DAU24
{
	//Time   /    Value
	0	0
	0.2	0
	0.72	0
	3.24	0
	5.48	0
    7.4 0
}
anim Clip_U_LipP_UAU24
{
	//Time   /    Value
	0	0
	0.2	0
	0.72	0
	3.24	0
	5.48	0
    7.4 0
}
anim Clip_LipP_CAU24
{
	//Time   /    Value
	0	0
	0.2	0
	0.56	70.4981
	3.24	0
	5.48	0
    7.4 0
}
anim Clip_D_LipSk_DAU28
{
	//Time   /    Value
	0	0
	0.2	0
	0.72	0
	3.24	0
	5.48	0
    7.4 0
}
anim Clip_U_LipSk_UAU28
{
	//Time   /    Value
	0	0
	0.2	0
	0.72	0
	3.24	0
	5.48	0
    7.4 0
}
anim Clip_LipSk_CAU28
{
	//Time   /    Value
	0	0
	0.2	0
	0.72	0
	3.24	0
	5.48	0
    7.4 0
}
anim Clip_U_Bite_UAU32
{
	//Time   /    Value
	0	0
	0.2	0
	0.72	0
	3.24	0
	5.48	0
    7.4 0
}
anim Clip_JawO_CAU2627
{
	//Time   /    Value
	0	0
	0.2	0
	0.72	0
	3.24	0
	5.48	0
    7.4 0
}
anim Clip_JawUp_CAU17
{
	//Time   /    Value
	0	0
	0.2	0
	0.72	0
	3.24	0
	5.48	0
    7.4 0
}
anim Clip_L_JawSd_LAU30
{
	//Time   /    Value
	0	0
	0.08	0
	0.16	0
	0.24	0
	0.32	0
	0.4	0
	0.48	0
	0.56	0
	0.64	0
	0.72	0
	0.8	0
	0.88	0
	0.96	0
	1.04	0
	1.12	0
	1.2	0
	1.28	0
	1.36	0
	1.44	0
	1.52	0
	1.6	0
	1.68	0
	1.76	0
	1.84	0
	1.92	0
	2	0
	2.08	0
	2.16	0
	2.24	0
	2.32	0
	2.4	0
	2.48	0
	2.56	0
	2.64	0
	2.72	0
	2.8	0
	2.88	0
	2.96	0
	3.04	0
	3.12	0
	3.2	0
	3.28	0
	3.36	0
	3.44	0
	3.52	0
	3.6	0
	3.68	0
	3.76	0
	3.84	0
	3.92	0
	4	0
	4.08	0
	4.16	0
	4.24	0
	4.32	0
	4.4	0
	4.48	0
	4.56	0
	4.64	0
	4.72	0
	4.8	0
	4.88	0
	4.96	0
	5.04	0
	5.12	0
	5.2	0
	5.28	0
	5.36	0
	5.44	0
	5.52	0
	5.6	0
	5.68	0
	5.76	0
	5.84	0
	5.92	0
	6	0
	6.08	0
	6.16	0
    7.4 0
}
anim Clip_R_JawSd_RAU30
{
	//Time   /    Value
	0	-0
	0.08	-0
	0.16	-0
	0.24	-0
	0.32	-0
	0.4	-0
	0.48	-0
	0.56	-0
	0.64	-0
	0.72	-0
	0.8	-0
	0.88	-0
	0.96	-0
	1.04	-0
	1.12	-0
	1.2	-0
	1.28	-0
	1.36	-0
	1.44	-0
	1.52	-0
	1.6	-0
	1.68	-0
	1.76	-0
	1.84	-0
	1.92	-0
	2	-0
	2.08	-0
	2.16	-0
	2.24	-0
	2.32	-0
	2.4	-0
	2.48	-0
	2.56	1.67473
	2.64	5.94472
	2.72	11.6786
	2.8	17.745
	2.88	23.0127
	2.96	26.3501
	3.04	26.53
	3.12	22.9179
	3.2	17.0298
	3.28	10.5975
	3.36	5.35239
	3.44	2.64642
	3.52	1.19929
	3.6	0.488413
	3.68	0.289442
	3.76	0.378029
	3.84	0.529823
	3.92	0.559314
	4	0.559314
	4.08	0.559314
	4.16	0.559314
	4.24	0.559314
	4.32	0.559314
	4.4	0.559314
	4.48	0.559314
	4.56	0.559314
	4.64	0.559314
	4.72	0.559314
	4.8	0.559314
	4.88	0.559314
	4.96	0.559314
	5.04	0.559314
	5.12	0.559314
	5.2	0.559314
	5.28	0.559314
	5.36	0.559314
	5.44	0.559314
	5.52	0.559314
	5.6	0.559314
	5.68	0.559314
	5.76	0.559314
	5.84	0.559314
	5.92	0.559314
	6	0.559314
	6.08	0.559314
	6.16	0.559314
    7.4 0
}
anim Clip_L_JawSdO_LAU30
{
	//Time   /    Value
	0	0
	0.08	0
	0.16	0
	0.24	0
	0.32	0
	0.4	0
	0.48	0
	0.56	0
	0.64	0
	0.72	0
	0.8	0
	0.88	0
	0.96	0
	1.04	0
	1.12	0
	1.2	0
	1.28	0
	1.36	0
	1.44	0
	1.52	0
	1.6	0
	1.68	0
	1.76	0
	1.84	0
	1.92	0
	2	0
	2.08	0
	2.16	0
	2.24	0
	2.32	0
	2.4	0
	2.48	0
	2.56	0
	2.64	0
	2.72	0
	2.8	0
	2.88	0
	2.96	0
	3.04	0
	3.12	0
	3.2	0
	3.28	0
	3.36	0
	3.44	0
	3.52	0
	3.6	0
	3.68	0
	3.76	0
	3.84	0
	3.92	0
	4	0
	4.08	0
	4.16	0
	4.24	0
	4.32	0
	4.4	0
	4.48	0
	4.56	0
	4.64	0
	4.72	0
	4.8	0
	4.88	0
	4.96	0
	5.04	0
	5.12	0
	5.2	0
	5.28	0
	5.36	0
	5.44	0
	5.52	0
	5.6	0
	5.68	0
	5.76	0
	5.84	0
	5.92	0
	6	0
	6.08	0
	6.16	0
    7.4 0
}
anim Clip_R_JawSdO_RAU30
{
	//Time   /    Value
	0	-0
	0.08	-0
	0.16	-0
	0.24	-0
	0.32	-0
	0.4	-0
	0.48	-0
	0.56	-0
	0.64	-0
	0.72	-0
	0.8	-0
	0.88	-0
	0.96	-0
	1.04	-0
	1.12	-0
	1.2	-0
	1.28	-0
	1.36	-0
	1.44	-0
	1.52	-0
	1.6	-0
	1.68	-0
	1.76	-0
	1.84	-0
	1.92	-0
	2	-0
	2.08	-0
	2.16	-0
	2.24	-0
	2.32	-0
	2.4	-0
	2.48	-0
	2.56	-0
	2.64	-0
	2.72	-0
	2.8	-0
	2.88	-0
	2.96	-0
	3.04	-0
	3.12	-0
	3.2	-0
	3.28	-0
	3.36	-0
	3.44	-0
	3.52	-0
	3.6	-0
	3.68	-0
	3.76	-0
	3.84	-0
	3.92	-0
	4	-0
	4.08	-0
	4.16	-0
	4.24	-0
	4.32	-0
	4.4	-0
	4.48	-0
	4.56	-0
	4.64	-0
	4.72	-0
	4.8	-0
	4.88	-0
	4.96	-0
	5.04	-0
	5.12	-0
	5.2	-0
	5.28	-0
	5.36	-0
	5.44	-0
	5.52	-0
	5.6	-0
	5.68	-0
	5.76	-0
	5.84	-0
	5.92	-0
	6	-0
	6.08	-0
	6.16	-0
    7.4 0
}
anim Clip_F_JawTh_FAU29
{
	//Time   /    Value
	0	0
	0.08	0
	0.16	0
	0.24	0
	0.32	0
	0.4	0
	0.48	0
	0.56	0
	0.64	0
	0.72	0
	0.8	0
	0.88	0
	0.96	0
	1.04	0
	1.12	0
	1.2	0
	1.28	0
	1.36	0
	1.44	0
	1.52	0
	1.6	0
	1.68	0
	1.76	0
	1.84	0
	1.92	0
	2	0
	2.08	0
	2.16	0
	2.24	0
	2.32	0
	2.4	0
	2.48	0
	2.56	0
	2.64	0
	2.72	0
	2.8	0
	2.88	0
	2.96	0
	3.04	0
	3.12	0
	3.2	0
	3.28	0
	3.36	0
	3.44	0
	3.52	0
	3.6	0
	3.68	0
	3.76	0
	3.84	0
	3.92	0
	4	0
	4.08	0
	4.16	0
	4.24	0
	4.32	0
	4.4	0
	4.48	0
	4.56	0
	4.64	0
	4.72	0
	4.8	0
	4.88	0
	4.96	0
	5.04	0
	5.12	0
	5.2	0
	5.28	0
	5.36	0
	5.44	0
	5.52	0
	5.6	0
	5.68	0
	5.76	0
	5.84	0
	5.92	0
	6	0
	6.08	0
	6.16	0
    7.4 0
}
anim Clip_B_JawTh_BAU29
{
	//Time   /    Value
	0	-0
	0.08	-0
	0.16	-0
	0.24	-0
	0.32	-0
	0.4	-0
	0.48	-0
	0.56	-0
	0.64	-0
	0.72	-0
	0.8	-0
	0.88	-0
	0.96	-0
	1.04	-0
	1.12	-0
	1.2	-0
	1.28	-0
	1.36	-0
	1.44	-0
	1.52	-0
	1.6	-0
	1.68	-0
	1.76	-0
	1.84	-0
	1.92	-0
	2	-0
	2.08	-0
	2.16	-0
	2.24	-0
	2.32	-0
	2.4	-0
	2.48	-0
	2.56	-0
	2.64	-0
	2.72	-0
	2.8	-0
	2.88	-0
	2.96	-0
	3.04	-0
	3.12	-0
	3.2	-0
	3.28	-0
	3.36	-0
	3.44	-0
	3.52	-0
	3.6	-0
	3.68	-0
	3.76	-0
	3.84	-0
	3.92	-0
	4	-0
	4.08	-0
	4.16	-0
	4.24	-0
	4.32	-0
	4.4	-0
	4.48	-0
	4.56	-0
	4.64	-0
	4.72	-0
	4.8	-0
	4.88	-0
	4.96	-0
	5.04	-0
	5.12	-0
	5.2	-0
	5.28	-0
	5.36	-0
	5.44	-0
	5.52	-0
	5.6	-0
	5.68	-0
	5.76	-0
	5.84	-0
	5.92	-0
	6	-0
	6.08	-0
	6.16	-0
    7.4 0
}
anim Clip_F_JawThO_FAU29
{
	//Time   /    Value
	0	0
	0.08	0
	0.16	0
	0.24	0
	0.32	0
	0.4	0
	0.48	0
	0.56	0
	0.64	0
	0.72	0
	0.8	0
	0.88	0
	0.96	0
	1.04	0
	1.12	0
	1.2	0
	1.28	0
	1.36	0
	1.44	0
	1.52	0
	1.6	0
	1.68	0
	1.76	0
	1.84	0
	1.92	0
	2	0
	2.08	0
	2.16	0
	2.24	0
	2.32	0
	2.4	0
	2.48	0
	2.56	0
	2.64	0
	2.72	0
	2.8	0
	2.88	0
	2.96	0
	3.04	0
	3.12	0
	3.2	0
	3.28	0
	3.36	0
	3.44	0
	3.52	0
	3.6	0
	3.68	0
	3.76	0
	3.84	0
	3.92	0
	4	0
	4.08	0
	4.16	0
	4.24	0
	4.32	0
	4.4	0
	4.48	0
	4.56	0
	4.64	0
	4.72	0
	4.8	0
	4.88	0
	4.96	0
	5.04	0
	5.12	0
	5.2	0
	5.28	0
	5.36	0
	5.44	0
	5.52	0
	5.6	0
	5.68	0
	5.76	0
	5.84	0
	5.92	0
	6	0
	6.08	0
	6.16	0
    7.4 0
}
anim Clip_B_JawThO_BAU29
{
	//Time   /    Value
	0	-0
	0.08	-0
	0.16	-0
	0.24	-0
	0.32	-0
	0.4	-0
	0.48	-0
	0.56	-0
	0.64	-0
	0.72	-0
	0.8	-0
	0.88	-0
	0.96	-0
	1.04	-0
	1.12	-0
	1.2	-0
	1.28	-0
	1.36	-0
	1.44	-0
	1.52	-0
	1.6	-0
	1.68	-0
	1.76	-0
	1.84	-0
	1.92	-0
	2	-0
	2.08	-0
	2.16	-0
	2.24	-0
	2.32	-0
	2.4	-0
	2.48	-0
	2.56	-0
	2.64	-0
	2.72	-0
	2.8	-0
	2.88	-0
	2.96	-0
	3.04	-0
	3.12	-0
	3.2	-0
	3.28	-0
	3.36	-0
	3.44	-0
	3.52	-0
	3.6	-0
	3.68	-0
	3.76	-0
	3.84	-0
	3.92	-0
	4	-0
	4.08	-0
	4.16	-0
	4.24	-0
	4.32	-0
	4.4	-0
	4.48	-0
	4.56	-0
	4.64	-0
	4.72	-0
	4.8	-0
	4.88	-0
	4.96	-0
	5.04	-0
	5.12	-0
	5.2	-0
	5.28	-0
	5.36	-0
	5.44	-0
	5.52	-0
	5.6	-0
	5.68	-0
	5.76	-0
	5.84	-0
	5.92	-0
	6	-0
	6.08	-0
	6.16	-0
    7.4 0
}
anim Clip_Puff_CAU34
{
	//Time   /    Value
	0	0
	0.2	0
	0.72	0
	3.24	0
	5.48	0
    7.4 0
}
anim Clip_FlatterNormal_CAU34
{
	//Time   /    Value
	0	0
	0.2	0
	0.72	0
	3.24	0
	5.48	0
    7.4 0
}
anim Clip_Suck_CAU35
{
	//Time   /    Value
	0	0
	0.2	0
	0.72	0
	3.24	0
	5.48	0
    7.4 0
}
anim Clip_Tong_CAU36
{
	//Time   /    Value
	0	0
	0.2	0
	0.72	0
	3.24	0
	5.48	0
    7.4 0
}
anim Clip_L_Tong_LAU36
{
	//Time   /    Value
	0	0
	0.2	0
	0.72	0
	3.24	0
	5.48	0
    7.4 0
}
anim Clip_R_Tong_RAU36
{
	//Time   /    Value
	0	0
	0.2	0
	0.72	0
	3.24	0
	5.48	0
    7.4 0
}
anim Clip_X1_CMthD
{
	//Time   /    Value
	0	0
	0.2	0
	0.72	0
	3.24	0
	5.48	0
    7.4 0
}
anim Clip_X4C_JawCrcl
{
	//Time   /    Value
	0	0
	0.2	0
	0.72	0
	3.24	0
	5.48	0
    7.4 0
}
anim Clip_X4O_JawCrcl
{
	//Time   /    Value
	0	0
	0.2	0
	0.72	0
	3.24	0
	5.48	0
    7.4 0
}
anim Clip_Fear
{
	//Time   /    Value
	0	0
	0.2	0
	0.72	0
	3.24	0
	5.48	0
    7.4 0
}
anim Clip_SadO
{
	//Time   /    Value
	0	0
	0.2	0
	0.72	0
	3.24	0
	5.48	0
    7.4 0
}
anim Clip_SadC
{
	//Time   /    Value
	0	0
	0.2	0
	0.72	0
	3.24	0
	5.48	0
    7.4 0
}
anim Clip_AngerO
{
	//Time   /    Value
	0	0
	0.2	0
	0.72	0
	3.24	0
	5.48	0
    7.4 0
}
anim Clip_AngerC
{
	//Time   /    Value
	0	0
	0.2	0
	0.72	0
	3.24	0
	5.48	0
    7.4 0
}
anim Clip_JoyO
{
	//Time   /    Value
	0	0
	0.2	0
	0.72	0
	3.24	0
	5.48	0
    7.4 0
}
anim Clip_JoyC
{
	//Time   /    Value
	0	0
	0.2	0
	0.72	0
	3.24	0
	5.48	0
    7.4 0
}
anim Clip_DisgC
{
	//Time   /    Value
	0	0
	0.2	0
	0.72	0
	3.24	0
	5.48	0
    7.4 0
}
anim Clip_DisgO
{
	//Time   /    Value
	0	0
	0.2	0
	0.72	0
	3.24	0
	5.48	0
    7.4 0
}
anim Clip_Surp
{
	//Time   /    Value
	0	0
	0.2	0
	3.4	3.70562
	3.56	85.1399
	3.68	98.989
	4	93.8649
	4.8	61.1559
	5.44	0
    7.4 0
}
anim Clip_Shrug
{
	//Time   /    Value
	0	0
	0.2	0
	3.24	0
	5.48	0
    7.4 0
}
anim Clip_Phonem_F
{
	//Time   /    Value
	0	0
	0.2	0
	3.24	0
	5.48	0
    7.4 0
}
anim Clip_Phonem_O
{
	//Time   /    Value
	0	0
	0.2	0
	3.24	0
	5.48	0
    7.4 0
}
anim Clip_Phonem_M
{
	//Time   /    Value
	0	0
	0.2	0
	3.24	0
	5.48	0
    7.4 0
}
anim Clip_Phonem_E
{
	//Time   /    Value
	0	0
	0.2	0
	3.24	0
	5.48	0
    7.4 0
}
anim Clip_Phonem_I
{
	//Time   /    Value
	0	0
	0.2	0
	3.24	0
	5.48	0
    7.4 0
}
anim Clip_Phonem_P
{
	//Time   /    Value
	0	0
	0.2	0
	3.24	0
	5.48	0
    7.4 0
}
anim BoneClip_Spine_2_translateX
{
	//Time   /    Value
	0	0
	0.2	0
    7.4 0
}
anim BoneClip_Spine_2_translateZ
{
	//Time   /    Value
	0	0
	0.2	0
    7.4 0
}
anim BoneClip_Spine_2_translateY
{
	//Time   /    Value
	0	0
	0.2	0
    7.4 0
}
anim BoneClip_Spine_2_rotateZ
{
	//Time   /    Value
	0	0
	0.2	0
    7.4 0
}
anim BoneClip_Spine_2_rotateY
{
	//Time   /    Value
	0	0
	0.2	0
    7.4 0
}
anim BoneClip_Spine_2_rotateX
{
	//Time   /    Value
	0	0
	0.2	0
    7.4 0
}
anim BoneClip_Spine_1_rotateY
{
	//Time   /    Value
	0	0
	0.2	0
	0.96	0
	1	0
	3.32	0
	3.72	0
	5.32	0
    7.4 0
}
anim BoneClip_Spine_1_rotateZ
{
	//Time   /    Value
	0	0
	0.2	0
	0.96	0
	1	0
	3.32	0
	3.72	0
	5.32	0
    7.4 0
}
anim BoneClip_Spine_1_rotateX
{
	//Time   /    Value
	0	0
	0.2	0
	0.96	-1.48754e-007
	1	-1.93704e-005
	3.2	-1.93704e-005
	3.48	-0.00797981
	3.56	-0.0173966
	3.92	-0.0260089
	4.52	-0.0279534
	5.2	-0.0052216
	5.6	-1.93704e-005
    7.4 0
}
anim BoneClip_Spine_1_translateZ
{
	//Time   /    Value
	0	0
	0.2	0
	0.96	0
	1	0
	3.32	0
	3.72	0
	5.32	0
    7.4 0
}
anim BoneClip_Spine_1_translateY
{
	//Time   /    Value
	0	0
	0.2	0
	0.96	0
	1	0
	3.32	0
	3.72	0
	5.32	0
    7.4 0
}
anim BoneClip_Spine_1_translateX
{
	//Time   /    Value
	0	0
	0.2	0
	0.96	0
	1	0
	3.32	0
	3.72	0
	5.32	0
    7.4 0
}
anim BoneClip_Collar_rotateX
{
	//Time   /    Value
	0	0
	0.2	0
	0.96	-1.48754e-007
	1	0
	3.2	0
	3.48	-0.00402746
	3.72	-0.0371635
	4.52	-0.0371635
	5.6	0
    7.4 0
}
anim BoneClip_Collar_rotateZ
{
	//Time   /    Value
	0	0
	0.2	0
	0.96	0
	1	0
	1.04	0
	5.32	0
    7.4 0
}
anim BoneClip_Collar_rotateY
{
	//Time   /    Value
	0	0
	0.2	0
	0.96	0
	1	0.000415751
	1.04	0.000415751
	1.08	0.000244685
	1.28	-0.00193232
	1.4	-0.00367352
	1.88	-0.00485736
	2.16	0.00059739
	3.16	0.00470864
	3.72	0.000217267
	5.32	-0.0003817
	5.6	0
    7.4 0
}
anim BoneClip_Collar_translateZ
{
	//Time   /    Value
	0	0
	0.2	0
	0.96	0
	1	0
	1.04	0
	5.32	0
    7.4 0
}
anim BoneClip_Collar_translateY
{
	//Time   /    Value
	0	0
	0.2	0
	0.96	0
	1	0
	1.04	0
	5.32	0
    7.4 0
}
anim BoneClip_Collar_translateX
{
	//Time   /    Value
	0	0
	0.2	0
	0.96	0
	1	0
	1.04	0
	5.32	0
    7.4 0
}
anim BoneClip_Head_translateZ
{
	//Time   /    Value
	0	0
	0.2	0
	0.68	0
	0.96	0
	1	0
	1.04	0
	1.28	0
	2.36	0
	3.28	0
	3.76	0
    7.4 0
}
anim BoneClip_Head_translateX
{
	//Time   /    Value
	0	0
	0.2	0
	0.96	0
	1	0
	1.04	0
	1.28	0
	2.36	0
	3.28	0
	3.76	0
    7.4 0
}
anim BoneClip_Head_rotateX
{
	//Time   /    Value
	0	0
	0.2	0
	0.96	0
	1	0
	1.52	0.0193501
	2.36	0.0146597
	2.88	0.00459278
	3.28	0.00280438
	3.48	0.0769252
	3.76	0.0428517
	3.96	0.0564039
	4.28	0.0634761
	4.52	0.0634761
	5.04	0.0178844
	5.56	-0.00486706
	6.16	-0.00125496
	6.16017	0
    7.4 0
}
anim BoneClip_Head_rotateZ
{
	//Time   /    Value
	0	0
	0.2	0
	0.96	0
	1	0
	1.04	0
	1.28	0
	1.52	0.00545273
	2.36	0.00173658
	2.88	-0.00120846
	3.24	-0.00120846
	3.28	-0.000747745
	3.36	0.000568588
	3.76	-0.00867163
	3.88	-0.010116
	4.68	-0.010116
	5.6	0
    7.4 0
}
anim BoneClip_Head_rotateY
{
	//Time   /    Value
	0	0
	0.2	0
	0.96	0
	1	0
	1.04	0
	1.32	-0.0413981
	1.52	-0.0568684
	1.76	-0.0485263
	2.04	-0.00338522
	2.36	0.0287162
	2.4	0.0287162
	2.88	0.0129095
	3.48	0.013731
	3.76	0.0137998
	4.68	0.013731
	5.6	0
    7.4 0
}
anim BoneClip_LShoulder_rotateZ
{
	//Time   /    Value
	0	0
	0.2	0
    7.4 0
}
anim BoneClip_LShoulder_rotateX
{
	//Time   /    Value
	0	0
	0.2	0
    7.4 0
}
anim BoneClip_LShoulder_rotateY
{
	//Time   /    Value
	0	0
	0.2	0
    7.4 0
}
anim BoneClip_LShoulder_translateZ
{
	//Time   /    Value
	0	0
	0.2	0
    7.4 0
}
anim BoneClip_LShoulder_translateY
{
	//Time   /    Value
	0	0
	0.2	0
    7.4 0
}
anim BoneClip_LShoulder_translateX
{
	//Time   /    Value
	0	0
	0.2	0
    7.4 0
}
anim lArm_Loc_translateX
{
	//Time   /    Value
	0	0
	0.2	0
    7.4 0
}
anim lArm_Loc_translateY
{
	//Time   /    Value
	0	0
	0.2	0
    7.4 0
}
anim lArm_Loc_translateZ
{
	//Time   /    Value
	0	0
	0.2	0
    7.4 0
}
anim lArm_Loc_rotateX
{
	//Time   /    Value
	0	0
	0.2	0
    7.4 0
}
anim lArm_Loc_rotateY
{
	//Time   /    Value
	0	0
	0.2	0
    7.4 0
}
anim lArm_Loc_rotateZ
{
	//Time   /    Value
	0	0
	0.2	0
    7.4 0
}
anim BoneClip_LShoulderEnd_translateY
{
	//Time   /    Value
	0	0
	0.2	0
    7.4 0
}
anim BoneClip_LShoulderEnd_translateX
{
	//Time   /    Value
	0	0
	0.2	0
    7.4 0
}
anim BoneClip_LShoulderEnd_translateZ
{
	//Time   /    Value
	0	0
	0.2	0
    7.4 0
}
anim BoneClip_LShoulderEnd_rotateZ
{
	//Time   /    Value
	0	0
	0.2	0
    7.4 0
}
anim BoneClip_LShoulderEnd_rotateY
{
	//Time   /    Value
	0	0
	0.2	0
    7.4 0
}
anim BoneClip_LShoulderEnd_rotateX
{
	//Time   /    Value
	0	0
	0.2	0
    7.4 0
}
anim BoneClip_RShoulder_rotateZ
{
	//Time   /    Value
	0	0
	0.2	0
    7.4 0
}
anim BoneClip_RShoulder_rotateX
{
	//Time   /    Value
	0	0
	0.2	0
    7.4 0
}
anim BoneClip_RShoulder_rotateY
{
	//Time   /    Value
	0	0
	0.2	0
    7.4 0
}
anim BoneClip_RShoulder_translateY
{
	//Time   /    Value
	0	0
	0.2	0
    7.4 0
}
anim BoneClip_RShoulder_translateZ
{
	//Time   /    Value
	0	0
	0.2	0
    7.4 0
}
anim rArm_Loc_rotateX
{
	//Time   /    Value
	0	0
	0.2	0
    7.4 0
}
anim BoneClip_LShoulderEnd_rotateZ1
{
	//Time   /    Value
	0	0
	0.2	0
    7.4 0
}
anim BoneClip_LShoulderEnd_rotateY1
{
	//Time   /    Value
	0	0
	0.2	0
    7.4 0
}
anim BoneClip_LShoulderEnd_rotateX1
{
	//Time   /    Value
	0	0
	0.2	0
    7.4 0
}
anim BoneClip_LShoulderEnd_translateZ1
{
	//Time   /    Value
	0	0
	0.2	0
    7.4 0
}
anim BoneClip_LShoulderEnd_translateY1
{
	//Time   /    Value
	0	0
	0.2	0
    7.4 0
}
anim BoneClip_LShoulderEnd_translateX1
{
	//Time   /    Value
	0	0
	0.2	0
    7.4 0
}
anim Clip_R_Blink_AU45
{
	//Time   /    Value
	0	0
	0.2	0
	0.4	0
	0.56	100
	0.72	20.557
	0.92	0
	1.76	0
	1.88	100
	1.96	29.5186
	2.28	0
	3.24	0
	4.4	0
	4.44	100
	4.52	29.5186
	4.64	0
	5.48	0
    7.4 0
}
anim Clip_L_Blink_AU45
{
	//Time   /    Value
	0	0
	0.2	0
	0.4	0
	0.56	100
	0.72	19.7225
	0.96	0
	1.76	0
	1.88	100
	1.96	29.5186
	2.28	0
	3.24	0
	4.4	0
	4.44	100
	4.52	29.5186
	4.64	0
	5.48	0
    7.4 0
}
